{
  "root": {
    "src": "./",
    "dest":  "./"
  },

  "tasks": {
    "browserSync": {
      "server": {
        "baseDir": ["rendered", "."]
      }
    },

    "static": {
      "src": "src/static",
      "dest": "./assets/"
    },

    "js": {
      "src": "src/js",
      "dest": "assets/js",
      "extractSharedJs": true,
      "entries": {
        "app": ["./app.js"],
        "page": ["./page.js"]
      },
      "extensions": ["js"]
    },

    "css": {
      "src": "src/css",
      "dest": "assets/css",
      "autoprefixer": {
        "browsers": ["last 3 version"]
      },
      "sass": {
        "indentedSyntax": false
      },
      "extensions": ["sass", "scss", "css"]
    },

    "html": {
      "src": "views",
      "dest": "./rendered",
      "dataFile": "data/global.json",
      "htmlmin": {
        "collapseWhitespace": true
      },
      "extensions": ["html", "json"],
      "excludeFolders": ["layouts", "shared", "macros", "data"]
    },

    "images": {
      "src": "src/images",
      "dest": "assets/images",
      "extensions": ["jpg", "png", "svg", "gif"]
    },

    "fonts": {
      "src": "src/fonts",
      "dest": "assets/fonts",
      "extensions": ["woff2", "woff", "eot", "ttf", "svg"]
    },

    "iconFont": {
      "src": "assets/icons",
      "dest": "assets/fonts",
      "sassDest": "generated",
      "extensions": ["woff2", "woff", "eot", "ttf", "svg"]
    },

    "svgSprite": {
      "src": "src/sprites",
      "dest": "assets/images",
      "extensions": ["svg"]
    }
  }
}
